{
  "project_info": {
    "project_number": "479374800763",
    "project_id": "hiwithsign-579ca",
    "storage_bucket": "hiwithsign-579ca.appspot.com"
  },
  "client": [
    {
      "client_info": {
        "mobilesdk_app_id": "1:479374800763:android:ea1078e121bddd8dd4afde",
        "android_client_info": {
          "package_name": "com.example.fyp_hiwithsign"
        }
      },
      "oauth_client": [
        {
          "client_id": "479374800763-gq6tlulivvsm247l1kcr4m13p9j6fd0m.apps.googleusercontent.com",
          "client_type": 1,
          "android_info": {
            "package_name": "com.example.fyp_hiwithsign",
            "certificate_hash": "9e0736d5ce4d59e897da6185ea2356eb03f25445"
          }
        },
        {
          "client_id": "479374800763-lbcc0i1eeuru4f4drf3a9v958v37lpqa.apps.googleusercontent.com",
          "client_type": 3
        }
      ],
      "api_key": [
        {
          "current_key": "AIzaSyDhKXLZCrOqm7mWJk0zjBK8ro-XFNPvISg"
        }
      ],
      "services": {
        "appinvite_service": {
          "other_platform_oauth_client": [
            {
              "client_id": "479374800763-lbcc0i1eeuru4f4drf3a9v958v37lpqa.apps.googleusercontent.com",
              "client_type": 3
            }
          ]
        }
      }
    }
  ],
  "configuration_version": "1"
}